{
  "kind": "DaemonSet",
  "apiVersion": "apps/v1",
  "metadata": {
    "name": "daemons01",
    "namespace": "default",
    "selfLink": "/apis/apps/v1/namespaces/default/daemonsets/daemons01",
    "uid": "c7d464e2-956c-11eb-9b79-8c16457de4a3",
    "resourceVersion": "32720781",
    "generation": 6,
    "creationTimestamp": "2021-04-01T14:46:23Z",
    "labels": {
      "app": "daemons01"
    },
    "annotations": {
      "deprecated.daemonset.template.generation": "6",
      "kubectl.kubernetes.io/last-applied-configuration": "{\"apiVersion\":\"apps/v1\",\"kind\":\"DaemonSet\",\"metadata\":{\"annotations\":{},\"labels\":{\"app\":\"daemons01\"},\"name\":\"daemons01\",\"namespace\":\"default\"},\"spec\":{\"selector\":{\"matchLabels\":{\"app\":\"daemons01\"}},\"template\":{\"metadata\":{\"labels\":{\"app\":\"daemons01\"}},\"spec\":{\"containers\":[{\"command\":[\"daemons01\",\"-d\",\"daemon\"],\"env\":[{\"name\":\"PATH\",\"value\":\"/usr/local/sbin:/usr/local/bin:/usr/sbin:/usr/bin:/sbin:/bin:/run/current-system/sw/bin/\"},{\"name\":\"POD_NAMESPACE\",\"valueFrom\":{\"fieldRef\":{\"fieldPath\":\"metadata.namespace\"}}},{\"name\":\"POD_IP\",\"valueFrom\":{\"fieldRef\":{\"fieldPath\":\"status.podIP\"}}},{\"name\":\"NODE_NAME\",\"valueFrom\":{\"fieldRef\":{\"fieldPath\":\"spec.nodeName\"}}}],\"image\":\"fedora/daemons01:v1.1.0\",\"imagePullPolicy\":\"IfNotPresent\",\"name\":\"daemons01\",\"ports\":[{\"containerPort\":9500,\"name\":\"manager\"}],\"readinessProbe\":{\"tcpSocket\":{\"port\":9500}},\"securityContext\":{\"privileged\":true},\"volumeMounts\":[{\"mountPath\":\"/host/dev/\",\"name\":\"dev\"},{\"mountPath\":\"/host/proc/\",\"name\":\"proc\"},{\"mountPath\":\"/var/lib/daemon-thing/\",\"mountPropagation\":\"Bidirectional\",\"name\":\"daemon-thing\"},{\"mountPath\":\"/var/lib/daemon-thing-setting/\",\"name\":\"daemon-thing-default-setting\"}]}],\"serviceAccountName\":\"daemon-thing-service-account\",\"volumes\":[{\"hostPath\":{\"path\":\"/dev/\"},\"name\":\"dev\"},{\"hostPath\":{\"path\":\"/proc/\"},\"name\":\"proc\"},{\"hostPath\":{\"path\":\"/var/lib/daemon-thing/\"},\"name\":\"daemon-thing\"},{\"configMap\":{\"name\":\"daemon-thing-default-setting\"},\"name\":\"daemon-thing-default-setting\"}]}},\"updateStrategy\":{\"rollingUpdate\":{\"maxUnavailable\":\"100%\"}}}}\n",
      "daemon-thing.io/last-applied-tolerations": "[]"
    },
    "managedFields": [
      {
        "manager": "daemons01",
        "operation": "Update",
        "apiVersion": "apps/v1",
        "time": "2021-04-01T17:05:39Z",
        "fieldsType": "FieldsV1",
        "fieldsV1": {
          "f:metadata": {
            "f:annotations": {
              "f:daemon-thing.io/last-applied-tolerations": {}
            }
          }
        }
      },
      {
        "manager": "kubectl",
        "operation": "Update",
        "apiVersion": "apps/v1",
        "time": "2021-04-01T17:11:43Z",
        "fieldsType": "FieldsV1",
        "fieldsV1": {
          "f:metadata": {
            "f:annotations": {
              ".": {},
              "f:deprecated.daemonset.template.generation": {},
              "f:kubectl.kubernetes.io/last-applied-configuration": {}
            },
            "f:labels": {
              ".": {},
              "f:app": {}
            }
          },
          "f:spec": {
            "f:revisionHistoryLimit": {},
            "f:selector": {
              "f:matchLabels": {
                ".": {},
                "f:app": {}
              }
            },
            "f:template": {
              "f:metadata": {
                "f:labels": {
                  ".": {},
                  "f:app": {}
                }
              },
              "f:spec": {
                "f:containers": {
                  "k:{\"name\":\"daemons01\"}": {
                    ".": {},
                    "f:command": {},
                    "f:env": {
                      ".": {},
                      "k:{\"name\":\"DEFAULT_SETTING_PATH\"}": {
                        ".": {},
                        "f:name": {},
                        "f:value": {}
                      },
                      "k:{\"name\":\"NODE_NAME\"}": {
                        ".": {},
                        "f:name": {},
                        "f:valueFrom": {
                          ".": {},
                          "f:fieldRef": {
                            ".": {},
                            "f:apiVersion": {},
                            "f:fieldPath": {}
                          }
                        }
                      },
                      "k:{\"name\":\"PATH\"}": {
                        ".": {},
                        "f:name": {},
                        "f:value": {}
                      },
                      "k:{\"name\":\"POD_IP\"}": {
                        ".": {},
                        "f:name": {},
                        "f:valueFrom": {
                          ".": {},
                          "f:fieldRef": {
                            ".": {},
                            "f:apiVersion": {},
                            "f:fieldPath": {}
                          }
                        }
                      },
                      "k:{\"name\":\"POD_NAMESPACE\"}": {
                        ".": {},
                        "f:name": {},
                        "f:valueFrom": {
                          ".": {},
                          "f:fieldRef": {
                            ".": {},
                            "f:apiVersion": {},
                            "f:fieldPath": {}
                          }
                        }
                      }
                    },
                    "f:image": {},
                    "f:imagePullPolicy": {},
                    "f:name": {},
                    "f:ports": {
                      ".": {},
                      "k:{\"containerPort\":9500,\"protocol\":\"TCP\"}": {
                        ".": {},
                        "f:containerPort": {},
                        "f:name": {},
                        "f:protocol": {}
                      }
                    },
                    "f:readinessProbe": {
                      ".": {},
                      "f:failureThreshold": {},
                      "f:periodSeconds": {},
                      "f:successThreshold": {},
                      "f:tcpSocket": {
                        ".": {},
                        "f:port": {}
                      },
                      "f:timeoutSeconds": {}
                    },
                    "f:resources": {},
                    "f:securityContext": {
                      ".": {},
                      "f:privileged": {}
                    },
                    "f:terminationMessagePath": {},
                    "f:terminationMessagePolicy": {},
                    "f:volumeMounts": {
                      ".": {},
                      "k:{\"mountPath\":\"/host/dev/\"}": {
                        ".": {},
                        "f:mountPath": {},
                        "f:name": {}
                      },
                      "k:{\"mountPath\":\"/host/proc/\"}": {
                        ".": {},
                        "f:mountPath": {},
                        "f:name": {}
                      },
                      "k:{\"mountPath\":\"/var/lib/daemon-thing-setting/\"}": {
                        ".": {},
                        "f:mountPath": {},
                        "f:name": {}
                      },
                      "k:{\"mountPath\":\"/var/lib/daemon-thing/\"}": {
                        ".": {},
                        "f:mountPath": {},
                        "f:mountPropagation": {},
                        "f:name": {}
                      }
                    }
                  }
                },
                "f:dnsPolicy": {},
                "f:restartPolicy": {},
                "f:schedulerName": {},
                "f:securityContext": {},
                "f:serviceAccount": {},
                "f:serviceAccountName": {},
                "f:terminationGracePeriodSeconds": {},
                "f:volumes": {
                  ".": {},
                  "k:{\"name\":\"dev\"}": {
                    ".": {},
                    "f:hostPath": {
                      ".": {},
                      "f:path": {},
                      "f:type": {}
                    },
                    "f:name": {}
                  },
                  "k:{\"name\":\"daemon-thing\"}": {
                    ".": {},
                    "f:hostPath": {
                      ".": {},
                      "f:path": {},
                      "f:type": {}
                    },
                    "f:name": {}
                  },
                  "k:{\"name\":\"daemon-thing-default-setting\"}": {
                    ".": {},
                    "f:configMap": {
                      ".": {},
                      "f:defaultMode": {},
                      "f:name": {}
                    },
                    "f:name": {}
                  },
                  "k:{\"name\":\"proc\"}": {
                    ".": {},
                    "f:hostPath": {
                      ".": {},
                      "f:path": {},
                      "f:type": {}
                    },
                    "f:name": {}
                  }
                }
              }
            },
            "f:updateStrategy": {
              "f:rollingUpdate": {
                ".": {},
                "f:maxUnavailable": {}
              },
              "f:type": {}
            }
          }
        }
      },
      {
        "manager": "kube-controller-manager",
        "operation": "Update",
        "apiVersion": "apps/v1",
        "time": "2021-04-04T16:52:20Z",
        "fieldsType": "FieldsV1",
        "fieldsV1": {
          "f:status": {
            "f:currentNumberScheduled": {},
            "f:desiredNumberScheduled": {},
            "f:numberAvailable": {},
            "f:numberMisscheduled": {},
            "f:numberReady": {},
            "f:observedGeneration": {},
            "f:updatedNumberScheduled": {}
          }
        }
      }
    ]
  },
  "spec": {
    "selector": {
      "matchLabels": {
        "app": "daemons01"
      }
    },
    "template": {
      "metadata": {
        "creationTimestamp": null,
        "labels": {
          "app": "daemons01"
        }
      },
      "spec": {
        "volumes": [
          {
            "name": "dev",
            "hostPath": {
              "path": "/dev/",
              "type": ""
            }
          },
          {
            "name": "proc",
            "hostPath": {
              "path": "/proc/",
              "type": ""
            }
          },
          {
            "name": "daemon-thing",
            "hostPath": {
              "path": "/var/lib/daemon-thing/",
              "type": ""
            }
          },
          {
            "name": "daemon-thing-default-setting",
            "configMap": {
              "name": "daemon-thing-default-setting",
              "defaultMode": 420
            }
          }
        ],
        "containers": [
          {
            "name": "daemons01",
            "image": "fedora/daemons01:v1.1.0",
            "command": [
              "daemons01",
              "-d",
              "daemon",
              "--engine-image",
              "fedora/daemon-thing-engine:v1.1.0",
              "--instance-manager-image",
              "fedora/daemon-thing-instance-manager:v1_20201216",
              "--share-manager-image",
              "fedora/daemon-thing-share-manager:v1_20201204",
              "--manager-image",
              "fedora/daemons01:v1.1.0",
              "--service-account",
              "daemon-thing-service-account"
            ],
            "ports": [
              {
                "name": "manager",
                "containerPort": 9500,
                "protocol": "TCP"
              }
            ],
            "env": [
              {
                "name": "PATH",
                "value": "/usr/local/sbin:/usr/local/bin:/usr/sbin:/usr/bin:/sbin:/bin:/run/current-system/sw/bin/"
              },
              {
                "name": "POD_NAMESPACE",
                "valueFrom": {
                  "fieldRef": {
                    "apiVersion": "v1",
                    "fieldPath": "metadata.namespace"
                  }
                }
              },
              {
                "name": "POD_IP",
                "valueFrom": {
                  "fieldRef": {
                    "apiVersion": "v1",
                    "fieldPath": "status.podIP"
                  }
                }
              },
              {
                "name": "NODE_NAME",
                "valueFrom": {
                  "fieldRef": {
                    "apiVersion": "v1",
                    "fieldPath": "spec.nodeName"
                  }
                }
              },
              {
                "name": "DEFAULT_SETTING_PATH",
                "value": "/var/lib/daemon-thing-setting/default-setting.yaml"
              }
            ],
            "resources": {},
            "volumeMounts": [
              {
                "name": "dev",
                "mountPath": "/host/dev/"
              },
              {
                "name": "proc",
                "mountPath": "/host/proc/"
              },
              {
                "name": "daemon-thing",
                "mountPath": "/var/lib/daemon-thing/",
                "mountPropagation": "Bidirectional"
              },
              {
                "name": "daemon-thing-default-setting",
                "mountPath": "/var/lib/daemon-thing-setting/"
              }
            ],
            "readinessProbe": {
              "tcpSocket": {
                "port": 9500
              },
              "timeoutSeconds": 1,
              "periodSeconds": 10,
              "successThreshold": 1,
              "failureThreshold": 3
            },
            "terminationMessagePath": "/dev/termination-log",
            "terminationMessagePolicy": "File",
            "imagePullPolicy": "IfNotPresent",
            "securityContext": {
              "privileged": true
            }
          }
        ],
        "restartPolicy": "Always",
        "terminationGracePeriodSeconds": 30,
        "dnsPolicy": "ClusterFirst",
        "serviceAccountName": "daemon-thing-service-account",
        "serviceAccount": "daemon-thing-service-account",
        "securityContext": {},
        "schedulerName": "default-scheduler"
      }
    },
    "updateStrategy": {
      "type": "RollingUpdate",
      "rollingUpdate": {
        "maxUnavailable": "100%"
      }
    },
    "revisionHistoryLimit": 10
  },
  "status": {
    "currentNumberScheduled": 2,
    "numberMisscheduled": 0,
    "desiredNumberScheduled": 2,
    "numberReady": 2,
    "observedGeneration": 6,
    "updatedNumberScheduled": 2,
    "numberAvailable": 2
  }
}
