{
  "kind": "PersistentVolumeList",
  "apiVersion": "v1",
  "metadata": {
    "resourceVersion": "66446303"
  },
  "items": [
    {
      "metadata": {
        "name": "pvc-small-one",
        "uid": "b1076d44-323d-4e88-a41e-10f4b2ac3e6b",
        "resourceVersion": "54504680",
        "creationTimestamp": "2021-06-14T20:16:02Z",
        "annotations": {
          "pv.kubernetes.io/provisioned-by": "driver.longhorn.io"
        },
        "finalizers": [
          "kubernetes.io/pv-protection",
          "external-attacher/driver-longhorn-io"
        ],
        "managedFields": [
          {
            "manager": "csi-provisioner",
            "operation": "Update",
            "apiVersion": "v1",
            "time": "2021-06-14T20:16:02Z",
            "fieldsType": "FieldsV1",
            "fieldsV1": {
              "f:metadata": {
                "f:annotations": {
                  ".": {},
                  "f:pv.kubernetes.io/provisioned-by": {}
                }
              },
              "f:spec": {
                "f:accessModes": {},
                "f:capacity": {
                  ".": {},
                  "f:storage": {}
                },
                "f:claimRef": {
                  ".": {},
                  "f:apiVersion": {},
                  "f:kind": {},
                  "f:name": {},
                  "f:namespace": {},
                  "f:resourceVersion": {},
                  "f:uid": {}
                },
                "f:csi": {
                  ".": {},
                  "f:driver": {},
                  "f:fsType": {},
                  "f:volumeAttributes": {
                    ".": {},
                    "f:fromBackup": {},
                    "f:numberOfReplicas": {},
                    "f:staleReplicaTimeout": {},
                    "f:storage.kubernetes.io/csiProvisionerIdentity": {}
                  },
                  "f:volumeHandle": {}
                },
                "f:persistentVolumeReclaimPolicy": {},
                "f:storageClassName": {},
                "f:volumeMode": {}
              }
            }
          },
          {
            "manager": "kube-controller-manager",
            "operation": "Update",
            "apiVersion": "v1",
            "time": "2021-06-14T20:16:02Z",
            "fieldsType": "FieldsV1",
            "fieldsV1": {
              "f:status": {
                "f:phase": {}
              }
            }
          },
          {
            "manager": "csi-attacher",
            "operation": "Update",
            "apiVersion": "v1",
            "time": "2021-06-14T20:21:04Z",
            "fieldsType": "FieldsV1",
            "fieldsV1": {
              "f:metadata": {
                "f:finalizers": {
                  "v:\"external-attacher/driver-longhorn-io\"": {}
                }
              }
            }
          }
        ]
      },
      "spec": {
        "capacity": {
          "storage": "2Gi"
        },
        "csi": {
          "driver": "driver.longhorn.io",
          "volumeHandle": "pvc-small-one",
          "fsType": "ext4",
          "volumeAttributes": {
            "fromBackup": "",
            "numberOfReplicas": "3",
            "staleReplicaTimeout": "2880",
            "storage.kubernetes.io/csiProvisionerIdentity": "1623701632286-8081-driver.longhorn.io"
          }
        },
        "accessModes": [
          "ReadWriteOnce"
        ],
        "claimRef": {
          "kind": "PersistentVolumeClaim",
          "namespace": "default",
          "name": "test-installation-pv-claim",
          "uid": "small-one",
          "apiVersion": "v1",
          "resourceVersion": "54503744"
        },
        "persistentVolumeReclaimPolicy": "Delete",
        "storageClassName": "longhorn",
        "volumeMode": "Filesystem"
      },
      "status": {
        "phase": "Released"
      }
    },
    {
      "metadata": {
        "name": "pvc-big-one",
        "uid": "a1d3ec3e-3556-4e11-bdcb-9c600ca2b15d",
        "resourceVersion": "41519755",
        "creationTimestamp": "2021-05-06T21:46:48Z",
        "annotations": {
          "pv.kubernetes.io/provisioned-by": "driver.longhorn.io"
        },
        "finalizers": [
          "kubernetes.io/pv-protection",
          "external-attacher/driver-longhorn-io"
        ],
        "managedFields": [
          {
            "manager": "csi-provisioner",
            "operation": "Update",
            "apiVersion": "v1",
            "time": "2021-05-06T21:46:48Z",
            "fieldsType": "FieldsV1",
            "fieldsV1": {
              "f:metadata": {
                "f:annotations": {
                  ".": {},
                  "f:pv.kubernetes.io/provisioned-by": {}
                }
              },
              "f:spec": {
                "f:accessModes": {},
                "f:capacity": {
                  ".": {},
                  "f:storage": {}
                },
                "f:claimRef": {
                  ".": {},
                  "f:apiVersion": {},
                  "f:kind": {},
                  "f:name": {},
                  "f:namespace": {},
                  "f:resourceVersion": {},
                  "f:uid": {}
                },
                "f:csi": {
                  ".": {},
                  "f:driver": {},
                  "f:fsType": {},
                  "f:volumeAttributes": {
                    ".": {},
                    "f:fromBackup": {},
                    "f:numberOfReplicas": {},
                    "f:staleReplicaTimeout": {},
                    "f:storage.kubernetes.io/csiProvisionerIdentity": {}
                  },
                  "f:volumeHandle": {}
                },
                "f:persistentVolumeReclaimPolicy": {},
                "f:storageClassName": {},
                "f:volumeMode": {}
              }
            }
          },
          {
            "manager": "kube-controller-manager",
            "operation": "Update",
            "apiVersion": "v1",
            "time": "2021-05-06T21:46:48Z",
            "fieldsType": "FieldsV1",
            "fieldsV1": {
              "f:status": {
                "f:phase": {}
              }
            }
          },
          {
            "manager": "csi-attacher",
            "operation": "Update",
            "apiVersion": "v1",
            "time": "2021-05-06T21:48:08Z",
            "fieldsType": "FieldsV1",
            "fieldsV1": {
              "f:metadata": {
                "f:finalizers": {
                  "v:\"external-attacher/driver-longhorn-io\"": {}
                }
              }
            }
          }
        ]
      },
      "spec": {
        "capacity": {
          "storage": "38Gi"
        },
        "csi": {
          "driver": "driver.longhorn.io",
          "volumeHandle": "pvc-big-one",
          "fsType": "ext4",
          "volumeAttributes": {
            "fromBackup": "",
            "numberOfReplicas": "3",
            "staleReplicaTimeout": "2880",
            "storage.kubernetes.io/csiProvisionerIdentity": "1620336193885-8081-driver.longhorn.io"
          }
        },
        "accessModes": [
          "ReadWriteOnce"
        ],
        "claimRef": {
          "kind": "PersistentVolumeClaim",
          "namespace": "default",
          "name": "test-data-pv-claim",
          "uid": "big-one",
          "apiVersion": "v1",
          "resourceVersion": "41519452"
        },
        "persistentVolumeReclaimPolicy": "Delete",
        "storageClassName": "longhorn",
        "volumeMode": "Filesystem"
      },
      "status": {
        "phase": "Bound"
      }
    }
  ]
}
